<?xml version="1.0" encoding="UTF-8"?>
<svg width="47px" height="30px" viewBox="0 0 47 30" version="1.1" xmlns="http://www.w3.org/2000/svg" xmlns:xlink="http://www.w3.org/1999/xlink">
    <!-- Generator: Sketch 49.3 (51167) - http://www.bohemiancoding.com/sketch -->
    <title>Group</title>
    <desc>Created with Sketch.</desc>
    <defs></defs>
    <g id="Symbols" stroke="none" stroke-width="1" fill="none" fill-rule="evenodd">
        <g id="TabletNav" transform="translate(-30.000000, -27.000000)" fill="#2E4057" fill-rule="nonzero">
            <g id="Group-2">
                <g id="Group" transform="translate(30.000000, 27.000000)">
                    <path d="M40.4941176,4.0002615 C39.020915,4.02985333 37.4875817,4.59209823 36.2248366,5.65740435 C34.9620915,6.72271048 34,8.40944517 34,10.4512819 C34,12.1084248 34,16.4288329 34,20.3053635 C34,24.1818942 34,27.644139 34,27.644139 C34,28.3247513 34.5712418,28.8869962 35.2627451,28.8869962 C35.9542484,28.8869962 36.4954248,28.3247513 36.4954248,27.644139 C36.4954248,27.644139 36.5254902,13.7951595 36.4954248,10.4216901 C36.4954248,9.11964925 37.0366013,8.20230231 37.848366,7.49209823 C38.6601307,6.81148599 39.7424837,6.42679211 40.4941176,6.42679211 C41.5163399,6.42679211 42.448366,6.81148599 43.1398693,7.40332272 C43.8313725,7.99515946 44.1921569,8.79413905 44.1921569,9.53393497 C44.1921569,10.3329146 43.8614379,11.0431186 43.3503268,11.5757717 C43.0496732,11.9012819 42.6588235,12.1380166 42.3581699,12.2563839 C42.6588235,11.8420982 42.869281,11.339037 42.869281,10.7767921 C42.869281,9.44515946 41.7568627,8.3502615 40.3738562,8.37985333 C39.5019608,8.37985333 38.7202614,8.85332272 38.2993464,9.53393497 C37.9986928,9.94822068 37.7581699,10.5400574 37.7281046,11.2502615 C37.7281046,11.8125064 37.9084967,12.433935 38.179085,12.9074044 C38.5699346,13.5584248 39.2915033,14.1206697 39.9228758,14.416588 C40.5542484,14.6829146 41.2457516,14.8308737 41.9372549,14.8308737 C43.1699346,14.8012819 44.2823529,14.1798533 45.1843137,13.2625064 C46.0562092,12.3451595 46.6875817,11.0431186 46.6875817,9.53393497 C46.6575163,6.45638395 43.8614379,3.97066966 40.4941176,4.0002615 Z" id="Shape"></path>
                    <path d="M0,9.53470879 C0,11.0438925 0.631372549,12.3459333 1.50326797,13.2632802 C2.3751634,14.1806272 3.4875817,14.8020557 4.7503268,14.8316476 C5.44183007,14.8316476 6.10326797,14.6836884 6.76470588,14.4173618 C7.39607843,14.1510353 8.11764706,13.5591986 8.50849673,12.9081782 C8.80915033,12.4347088 8.95947712,11.8132802 8.95947712,11.2510353 C8.92941176,10.5112394 8.68888889,9.9489945 8.38823529,9.53470879 C7.96732026,8.85409654 7.18562092,8.38062715 6.31372549,8.38062715 C4.96078431,8.38062715 3.84836601,9.44593328 3.81830065,10.7775659 C3.81830065,11.3398108 3.99869281,11.8428721 4.32941176,12.2571578 C4.02875817,12.1387904 3.66797386,11.9020557 3.3372549,11.5765455 C2.82614379,11.0438925 2.49542484,10.3336884 2.49542484,9.53470879 C2.49542484,8.76532103 2.88627451,7.99593328 3.54771242,7.40409654 C4.20915033,6.81225981 5.17124183,6.39797409 6.19346405,6.42756593 C6.9751634,6.42756593 8.05751634,6.78266797 8.83921569,7.49287205 C9.65098039,8.20307613 10.1921569,9.12042307 10.1921569,10.4224639 C10.1620915,13.7959333 10.1921569,27.6449129 10.1921569,27.6449129 C10.1921569,28.3255251 10.7633987,28.88777 11.4248366,28.88777 C12.1163399,28.88777 12.6875817,28.3255251 12.6875817,27.6449129 C12.6875817,27.6449129 12.6875817,24.182668 12.6875817,20.3061374 C12.6875817,16.4296067 12.6875817,12.1091986 12.6875817,10.4520557 C12.7176471,8.38062715 11.7555556,6.7234843 10.4627451,5.65817817 C9.2,4.56328022 7.63660131,4.00103532 6.19346405,4.00103532 C2.88627451,3.94185164 0.060130719,6.42756593 0,9.53470879 Z" id="Shape"></path>
                    <path d="M16,27.7020408 L16,10.3908163 C16,9.62142857 16.6313725,9 17.4130719,9 C18.1947712,9 18.8261438,9.62142857 18.8261438,10.3908163 L18.8261438,27.672449 C18.8261438,28.4418367 18.1947712,29.0632653 17.4130719,29.0632653 C16.6313725,29.0632653 16,28.4418367 16,27.7020408 Z" id="Shape"></path>
                    <path d="M22,27.7020408 L22,10.3908163 C22,9.62142857 22.6313725,9 23.4130719,9 C24.1947712,9 24.8261438,9.62142857 24.8261438,10.3908163 L24.8261438,27.672449 C24.8261438,28.4418367 24.1947712,29.0632653 23.4130719,29.0632653 C22.6313725,29.0632653 22,28.4418367 22,27.7020408 Z" id="Shape"></path>
                    <path d="M28,27.7020408 L28,10.3908163 C28,9.62142857 28.6313725,9 29.4130719,9 C30.1947712,9 30.8261438,9.62142857 30.8261438,10.3908163 L30.8261438,27.672449 C30.8261438,28.4418367 30.1947712,29.0632653 29.4130719,29.0632653 C28.6313725,29.0632653 28,28.4418367 28,27.7020408 Z" id="Shape"></path>
                    <path d="M15.2627451,6.48571429 C14.5712418,6.48571429 14,5.92346939 14,5.24285714 C14,4.5622449 14.5712418,4 15.2627451,4 L30.5359477,4 C31.227451,4 31.7986928,4.5622449 31.7986928,5.24285714 C31.7986928,5.92346939 31.227451,6.48571429 30.5359477,6.48571429 L15.2627451,6.48571429 Z" id="Shape"></path>
                    <path d="M10.2627451,2.48571429 C9.57124183,2.48571429 9,1.92346939 9,1.24285714 C9,0.562244898 9.57124183,0 10.2627451,0 L37.1411765,0 C37.8326797,0 38.4039216,0.562244898 38.4039216,1.24285714 C38.4039216,1.92346939 37.8326797,2.48571429 37.1411765,2.48571429 L10.2627451,2.48571429 Z" id="Shape"></path>
                </g>
            </g>
        </g>
    </g>
</svg>