<?xml version="1.0" encoding="utf-8"?>
<!-- Generator: Adobe Illustrator 22.1.0, SVG Export Plug-In . SVG Version: 6.00 Build 0)  -->
<svg version="1.1" id="Layer_1" xmlns="http://www.w3.org/2000/svg" xmlns:xlink="http://www.w3.org/1999/xlink" x="0px" y="0px"
	 width="100px" height="100px" viewBox="0 0 100 100" style="enable-background:new 0 0 100 100;" xml:space="preserve">
<style type="text/css">
	.st0{fill:#B9B9EF;}
	.st1{fill:#6960AB;}
</style>
<title>Artboard 12 copy 4</title>
<g>
	<path class="st0" d="M68,0.5H22.6c-9.9-0.1-18.1,8-18.1,17.9c0,0.1,0,0.1,0,0.2v16.3c0,10.1,8.2,16.3,18.3,16.3h7.2v19.9L48,51.3
		h20c10.1,0,19.9-8,19.9-18.1V18.6C88,8.5,78.1,0.5,68,0.5z"/>
	<path class="st1" d="M58.2,58h26.6c5.8-0.1,10.6,4.7,10.6,10.5c0,0.1,0,0.1,0,0.1v9.6c0,6-4.8,9.6-10.8,9.6h-4.1v11.8L70,87.8H58.2
		c-6,0-11.7-4.7-11.7-10.6v-8.5C46.5,62.7,52.3,58,58.2,58z"/>
</g>
</svg>
