<?xml version="1.0" encoding="utf-8"?>
<!-- Generator: Adobe Illustrator 22.1.0, SVG Export Plug-In . SVG Version: 6.00 Build 0)  -->
<svg version="1.1" id="Layer_1" xmlns="http://www.w3.org/2000/svg" xmlns:xlink="http://www.w3.org/1999/xlink" x="0px" y="0px"
	 width="15px" height="15px" viewBox="0 0 15 15" style="enable-background:new 0 0 15 15;" xml:space="preserve">
<style type="text/css">
	.st0{fill:#B9B9EF;}
</style>
<g id="Together">
	<g id="Desktop" transform="translate(-759.000000, -848.000000)">
		<g id="WhatWeTreat" transform="translate(0.000000, 475.000000)">
			<g id="Group-28" transform="translate(729.000000, 166.000000)">
				<g id="Group-14" transform="translate(30.000000, 193.000000)">
					<circle id="Oval" class="st0" cx="7.5" cy="21.5" r="3"/>
				</g>
			</g>
		</g>
	</g>
</g>
</svg>
