<?xml version="1.0" encoding="utf-8"?>
<!-- Generator: Adobe Illustrator 22.1.0, SVG Export Plug-In . SVG Version: 6.00 Build 0)  -->
<svg version="1.1" id="Layer_1" xmlns="http://www.w3.org/2000/svg" xmlns:xlink="http://www.w3.org/1999/xlink" x="0px" y="0px"
	 width="80px" height="80px" viewBox="0 0 80 80" style="enable-background:new 0 0 80 80;" xml:space="preserve">
<style type="text/css">
	.st0{fill:#FFFFFF;}
</style>
<g>
	<g>
		<defs>
			<path id="SVGID_1_" d="M106.9-3590h4.2c0.8,0,1.4,0.6,1.4,1.4v25.2c0,0.8-0.6,1.4-1.4,1.4h-4.2c-0.8,0-1.4-0.6-1.4-1.4v-25.2
				C105.5-3589.4,106.1-3590,106.9-3590z"/>
		</defs>
		<clipPath id="SVGID_2_">
			<use xlink:href="#SVGID_1_"  style="overflow:visible;"/>
		</clipPath>
	</g>
</g>
<g id="Together">
	<g id="Desktop" transform="translate(-686.000000, -816.000000)">
		<g id="WhatWeTreat" transform="translate(0.000000, 475.000000)">
			<g id="Group-2" transform="translate(686.000000, 341.000000)">
				<path class="st0" d="M80,34v12c0,2.2-1.8,4-4,4H50v26c0,2.2-1.8,4-4,4H34c-2.2,0-4-1.8-4-4V50H4c-2.2,0-4-1.8-4-4V34
					c0-2.2,1.8-4,4-4h26V4c0-2.2,1.8-4,4-4h12c2.2,0,4,1.8,4,4v26h26C78.2,30,80,31.8,80,34z"/>
			</g>
		</g>
	</g>
</g>
</svg>
