<?xml version="1.0" encoding="utf-8"?>
<!-- Generator: Adobe Illustrator 22.1.0, SVG Export Plug-In . SVG Version: 6.00 Build 0)  -->
<svg version="1.1" id="Layer_1" xmlns="http://www.w3.org/2000/svg" xmlns:xlink="http://www.w3.org/1999/xlink" x="0px" y="0px"
	 width="150px" height="150px" viewBox="0 0 150 150" style="enable-background:new 0 0 150 150;" xml:space="preserve">
<style type="text/css">
	.st0{fill:#B9B9EF;}
	.st1{fill:#6960AB;}
</style>
<g>
	<g>
		<rect x="92.2" y="109.8" class="st0" width="20.9" height="39.1"/>
		<path class="st0" d="M61,14.9c0,0,0-1.5,0,9.7s-0.1,13.6-0.1,20.6C66.5,50.8,72,60.1,72,75s0,68,0,68c0,3.3-2.7,6-6,6H39
			c-3.3,0-6-2.7-6-6c0,0,0-53.1,0-68S38.4,50.8,44,45.2c0.3-5.8,0.1-9.4,0.1-20.6s0-9.7,0-9.7"/>
		<rect x="44.3" y="1" class="st1" width="16.7" height="14.8"/>
		<rect x="33.1" y="74" class="st1" width="38.9" height="27"/>
		<rect x="89.5" y="102" class="st1" width="27.5" height="8.2"/>
		<rect x="92.2" y="124.4" class="st1" width="11.2" height="8.2"/>
	</g>
	<g>
		<path class="st0" d="M98.1,95.6c-0.9,1.2-2.5,1.5-3.7,0.7c-1.2-0.9-1.5-2.5-0.7-3.7l2.4-3.4c0.9-1.2,2.5-1.5,3.7-0.7
			c1.2,0.9,1.5,2.5,0.7,3.7L98.1,95.6z"/>
		
			<rect x="96.9" y="89.5" transform="matrix(0.5706 -0.8212 0.8212 0.5706 -34.0177 119.3894)" class="st1" width="0.6" height="5.4"/>
	</g>
	<g>
		<path class="st0" d="M107.5,83.7c0.6,1.3,0.1,3-1.2,3.6c-1.3,0.6-3,0.1-3.6-1.2l-1.9-3.7c-0.6-1.3-0.1-3,1.2-3.6
			c1.3-0.6,3-0.1,3.6,1.2L107.5,83.7z"/>
		
			<rect x="101.4" y="82.8" transform="matrix(0.8941 -0.4479 0.4479 0.8941 -26.1749 55.4325)" class="st1" width="5.4" height="0.6"/>
	</g>
</g>
</svg>
